{
    "sorting": 5, 
    
    "music" : [		
		"AccrosstheAges",    
		"HomosInSpace",
		"FuturesinAtrophy",
		"SpiralStarcase",
		"ManOuttaTown",    
		"Newspaper",
		"Why",
		"NoPhoto",
		"Safetynet",
		"JetBlackRose",
		"YeahYeah",
		"JustAMiracle",
		"TheManInTheHouse"         
    ],
    
    "camera_vector": [
        -0.5, 
        0.6, 
        -0.9
    ], 
    "shadow_source": [
        50, 
        -80, 
        80
    ], 
    "laps": 2, 
    "skidmark_col": [
        0.5, 
        0.5, 
        0.5
    ]
}
