{
    "engine_dec_frc": -6000, 
    "wheels_damping_relaxation": [
        1.1, 
        1.1
    ], 
    "color": [
        0.5, 
        1, 
        1, 
        0.5
    ], 
    "pitch_control": 2, 
    "max_speed": 166.0, 
    "engine_acc_frc": 5800, 
    "brake_frc": 28, 
    "eng_brk_frc": 9, 
    "max_suspension_travel_cm": 180, 
    "skid_info": 1, 
    "suspension_stiffness": [
        50, 
        50
    ], 
    "wheels_damping_compression": [
        1.85, 
        1.85
    ], 
    "max_suspension_force": 10000, 
    "sorting": 3, 
    "center_mass_offset": 0.05, 
    "engine_acc_frc_ratio": [
        0.5, 
        0.6
    ], 
    "roll_influence": [
        0.4, 
        0.33
    ], 
    "gfx_z": 0.04, 
    "suspension_compression": 1.7, 
    "steering": [
        30, 
        6
    ], 
    "steering_inc": 120, 
    "box_size": [
        0.72, 
        1.56, 
        0.25
    ], 
    "friction_slip_rear": [
        2.65, 
        2.65
    ], 
    "mass": 1680, 
    "suspension_damping": 1.50, 
    "friction_slip": [
        2.40, 
        2.40
    ], 
    "steering_dec": 120, 
    "steering_clamp": 40, 
    "brake_ratio": 0.28, 
    "box_pos": [
        0, 
        0.25, 
        0.65
    ]
}
